<?xml version="1.0" encoding="UTF-8"?>
<svg
  xmlns="http://www.w3.org/2000/svg" 
  xmlns:svg="http://www.w3.org/2000/svg" 
  viewBox="0 0 47.5 47.5" 
  height="47.5" 
  width="47.5" 
  version="1.1" 
  id="BTN_Shuffle" >
  <style type="text/css">
    #icon_shuffle path {
      stroke:            #9f9f9f;
      fill:              none;

      stroke-opacity:    1;

      fill-rule:         evenodd;
      stroke-width:      2.5;
      stroke-linecap:    round;
      stroke-linejoin:   round;
      stroke-miterlimit: 4;
      stroke-dasharray:  none;
    }

    #track_01_arrow,
    #track_02_arrow
    {
      fill:              #9f9f9f;
      fill-opacity:      1;
    }

  </style>
  <g id="icon_shuffle">
    <title>Shuffle Button</title>
    <g id="track_02">
      <path
         id="track_02_playorder"
         d="m 16.79815,29.409684 c 0,0 2.015778,0.206747 3.82481,-1.860718 1.809031,-2.067464 3.618063,-4.600109 4.858541,-5.943961 1.240479,-1.343852 3.437161,-1.137105 3.437161,-1.137105" ></path>
      <path
         id="track_02_arrow"
         d="m 30.520946,18.180196 0,4.341676 2.480957,-2.170838 z" ></path>
    </g>
    <g id="track_01">
      <path
        id="track_01_playorder_01"
        d="m 16.79815,19.227421 c 1.720902,0.09386 2.539465,0.491232 3.97987,1.912405" ></path>
      <path
        id="track_01_playorder_02"
        d="m 25.739935,27.083787 c 1.361634,1.329399 3.178727,1.343852 3.178727,1.343852" ></path>
      <path
        id="track_01_arrow"
        d="m 30.520946,26.37704 0,4.031556 2.480957,-2.015778 z" ></path>
    </g>
  </g>
</svg>
